<svg width="152" height="152" viewBox="0 0 152 152" fill="none" xmlns="http://www.w3.org/2000/svg">
<circle cx="76" cy="76" r="76" fill="white"/>
<path d="M85.8903 50.2125C87.6276 46.9423 86.3848 42.8828 83.1146 41.1456C79.8443 39.4083 75.7849 40.6511 74.0476 43.9214L56.1456 77.6207C54.4084 80.8909 55.6511 84.9503 58.9213 86.6876C62.1916 88.4249 66.251 87.1821 67.9883 83.9118L85.8903 50.2125Z" fill="#33B1E8"/>
<path d="M94.8216 75.388C96.577 72.0835 95.3213 67.9817 92.0168 66.2263C88.7124 64.4709 84.6107 65.7267 82.8553 69.0311L65.0189 102.607C63.2635 105.911 64.5192 110.013 67.8236 111.768C71.128 113.524 75.2299 112.268 76.9853 108.964L94.8216 75.388Z" fill="#ECA823" fill-opacity="0.49"/>
</svg>
